{
	"token": "*****INSERT YOUR OWN TOKEN HERE*****",
	"agent": "Mozilla/5.0 (Windows NT 10.0; WOW64) AppleWebKit/537.36 (KHTML, like Gecko) discord/0.0.305 Chrome/69.0.3497.128 Electron/4.0.8 Safari/537.36",
	
	"query": {
		"images": true,
		"files" : false,
		"embeds": false,
		"links" : false,
		"videos": false,
		"nsfw"  : true
	},
	
	"types": {
		"images": true,
		"videos": false,
		"files" : false,
		"text"  : false
	},
	
	"directs": {
	},
	
	"servers": {
# the server id for PatriotsSoapBox
		"430201713702731788": [
# the channel id for the 'patriots-graphics-design' channel
			"459837220136681482",
# the channel id for the 'redpill-memes' channel
			"553678216225619984",
# the channel id for the 'memes' channel
			"430235056124985365"
		]
	}
}
